CSV1,,
2016,January,1000000
2016,February,1200000
2016,March,1100000
2016,April,1300000
2016,May,1200000
2016,June,1350000
2016,July,1400000
2016,August,1500000
2016,September,1100000
2016,October,1350000
2016,November,1500000
2016,December,1355000
2017,January,1150000
2017,February,1200000
2017,March,1000000
2017,April,1400000
2017,May,1200000
2017,June,1100000
2017,July,1420000
2017,August,1500000
2017,September,120000000
2017,October,155000000
2017,November,130000000
2017,December,140000000
